{
  "template": "default-cfind-info*",
  "aliases": {
    "default-cfind-info-read": {}
  },
  "mappings": {
    "com.karos.nifi.CFindInformation": {
    "properties": {
      "aeTitle": {
        "type": "string"
      },
      "deleted": {
        "type": "boolean"
      },
      "id": {
        "type": "string",
        "index": "not_analyzed"
      },
      "studyIuid": {
        "type": "string",
        "index": "not_analyzed"
      },
      "contextId": {
        "type": "string",
        "index": "not_analyzed"
      },
      "patientBirthdate": {
        "type": "string"
      },
      "patientName": {
        "type": "string"
      },
      "patientSex": {
        "type": "string"
      },
      "revisions": {
        "properties": {
          "location": {
            "type": "string"
          },
          "signature": {
            "properties": {
              "createdBy": {
                "type": "string"
              },
              "createdWhen": {
                "type": "date",
                "format": "strict_date_optional_time||epoch_millis"
              },
              "createdWhere": {
                "type": "string"
              },
              "createdWhy": {
                "type": "string"
              },
              "version": {
                "type": "long"
              },
              "ownedBy": {
                "type": "string",
                "index": "not_analyzed"
              }
            }
          }
        }
      },
      "signature": {
        "properties": {
          "createdBy": {
            "type": "string"
          },
          "createdWhen": {
            "type": "date",
            "format": "strict_date_optional_time||epoch_millis"
          },
          "createdWhere": {
            "type": "string"
          },
          "createdWhy": {
            "type": "string"
          },
          "version": {
            "type": "long"
          },
          "ownedBy": {
            "type": "string",
            "index": "not_analyzed"
          }
        }
      },
      "type": {
        "type": "string"
      }
    }
  }
}
}