{
  "template": "default-device*",
  "aliases": {
    "default-device-read": {}
  },
  "mappings": {
    "com.karos.rialto.devices.Device": {
    "properties": {
      "deleted": {
        "type": "boolean"
      },
      "description": {
        "type": "string"
      },
      "deviceType": {
        "type": "string"
      },
      "endpoints": {
        "properties": {
          "id": {
            "type": "string",
            "index": "not_analyzed"
          },
          "tls": {
            "properties": {
              "clientAuthenticationEnabled": {
                "type": "boolean"
              },
              "keyStore": {
                "type": "string",
                "index": "not_analyzed"
              },
              "keyStorePassword": {
                "type": "string",
                "index": "not_analyzed"
              },
              "tlsRoot": {
                "type": "string",
                "index": "not_analyzed"
              },
              "trustStore": {
                "type": "string",
                "index": "not_analyzed"
              },
              "trustStorePassword": {
                "type": "string",
                "index": "not_analyzed"
              }
            }
          },
          "uri": {
            "type": "string",
            "index": "not_analyzed"
          }
        }
      },
      "entities": {
        "properties": {
          "aeTitle": {
            "type": "string"
          },
          "application": {
            "type": "string"
          },
          "charset": {
            "type": "string"
          },
          "facility": {
            "type": "string"
          },
          "id": {
            "type": "string"
          },
          "repositoryUID": {
            "type": "string"
          },
          "services": {
            "properties": {
              "acceptableMessageTypes": {
                "type": "string"
              },
              "deviceEndpoints": {
                "type": "string"
              },
              "id": {
                "type": "string"
              },
              "persistentConnection": {
                "type": "boolean"
              },
              "presentationContextSet": {
                "properties": {
                  "sopClassUid": {
                    "type": "string"
                  },
                  "transferSyntaxSet": {
                    "type": "string"
                  }
                }
              },
              "protocol": {
                "type": "string"
              },
              "relativeUrl": {
                "type": "string",
                "index": "not_analyzed"
              },
              "requestMorpher": {
                "type": "string",
                "index": "not_analyzed"
              },
              "responseMorpher": {
                "type": "string",
                "index": "not_analyzed"
              },
              "tcpKeepAlive": {
                "type": "boolean"
              },
              "type": {
                "type": "string"
              }
            }
          },
          "storageCommitEnabled": {
            "type": "boolean"
          },
          "type": {
            "type": "string"
          }
        }
      },
      "id": {
        "type": "string"
      },
      "location": {
        "type": "string",
        "index": "not_analyzed"
      },
      "model": {
        "type": "string",
        "index": "not_analyzed"
      },
      "name": {
        "type": "string"
      },
      "revisions": {
        "properties": {
          "location": {
            "type": "string",
            "index": "not_analyzed"
          },
          "signature": {
            "properties": {
              "createdBy": {
                "type": "string",
                "index": "not_analyzed"
              },
              "createdWhen": {
                "type": "date",
                "format": "strict_date_optional_time||epoch_millis"
              },
              "createdWhere": {
                "type": "string",
                "index": "not_analyzed"
              },
              "createdWhy": {
                "type": "string",
                "index": "not_analyzed"
              },
              "version": {
                "type": "long",
                "index": "not_analyzed"
              },
              "ownedBy": {
                "type": "string",
                "index": "not_analyzed"
              }
            }
          }
        }
      },
      "signature": {
        "properties": {
          "createdBy": {
            "type": "string",
            "index": "not_analyzed"
          },
          "createdWhen": {
            "type": "date",
            "format": "strict_date_optional_time||epoch_millis"
          },
          "createdWhere": {
            "type": "string",
            "index": "not_analyzed"
          },
          "createdWhy": {
            "type": "string",
            "index": "not_analyzed"
          },
          "version": {
            "type": "long",
            "index": "not_analyzed"
          },
          "ownedBy": {
            "type": "string",
            "index": "not_analyzed"
          }
        }
      },
      "type": {
        "type": "string",
        "index": "not_analyzed"
      },
      "vendor": {
        "type": "string"
      }
    }
  }
}
}