{
  "template": "default-event*",
  "aliases": {
    "default-event-read": {}
  },
  "mappings": {
    "_default_": {
      "_all": {
        "enabled": false
      },
      "dynamic": false,
      "properties": {
        "attemptNumber": {
          "type": "long"
        },
        "contextId": {
          "type": "string",
          "index": "not_analyzed"
        },
        "deleted": {
          "type": "boolean"
        },
        "durationMillis": {
          "type": "long"
        },
        "flowfileId": {
          "type": "string",
          "index": "not_analyzed"
        },
        "id": {
          "type": "string",
          "index": "not_analyzed"
        },
        "order": {
          "type": "nested",
          "include_in_parent": true,
          "properties": {
            "accessionNumber": {
              "type": "nested",
              "include_in_parent": true,
              "properties": {
                "id": {
                  "type": "string",
                  "index": "not_analyzed"
                },
                "issuerNamespace": {
                  "type": "string",
                  "index": "not_analyzed"
                },
                "issuerUniversalId": {
                  "type": "string",
                  "index": "not_analyzed"
                },
                "issuerUniversalIdType": {
                  "type": "string",
                  "index": "not_analyzed"
                }
              }
            },
            "bodypart": {
              "type": "string",
              "index": "not_analyzed"
            },
            "datetime": {
              "type": "date",
              "format": "strict_date_optional_time||epoch_millis"
            },
            "modality": {
              "type": "string",
              "index": "not_analyzed"
            },
            "procedureCode": {
              "type": "string",
              "index": "not_analyzed"
            }
          }
        },
        "patient": {
          "type": "nested",
          "include_in_parent": true,
          "properties": {
            "accountNumber": {
              "type": "string",
              "index": "not_analyzed"
            },
            "gender": {
              "type": "string",
              "index": "not_analyzed"
            },
            "birthdate": {
              "type": "nested",
              "include_in_parent": true,
              "properties": {
               "day": {
                  "type": "string",
                  "index": "not_analyzed"
                },
                "month": {
                  "type": "string",
                  "index": "not_analyzed"
                },
                "year": {
                  "type": "string",
                  "index": "not_analyzed"
                }
              } 
            },
            "address": {
              "type": "nested",
              "include_in_parent": true,
              "properties": {
                "city": {
                  "type": "string",
                  "index": "not_analyzed"
                },
                "country": {
                  "type": "string",
                  "index": "not_analyzed"
                },
                "phoneNumber": {
                  "type": "string"
                },
                "stateOrProvince": {
                  "type": "string",
                  "index": "not_analyzed"
                },
                "street": {
                  "type": "string",
                  "index": "not_analyzed"
                },
                "zipOrPostalCode": {
                  "type": "string"
                }
              }
            },
            "identifiers": {
              "type": "nested",
              "include_in_parent": true,
              "properties": {
                "id": {
                  "type": "string",
                  "index": "not_analyzed"
                },
                "issuerNamespace": {
                  "type": "string",
                  "index": "not_analyzed"
                },
                "issuerUniversalId": {
                  "type": "string",
                  "index": "not_analyzed"
                },
                "issuerUniversalIdType": {
                  "type": "string",
                  "index": "not_analyzed"
                }
              }
            },
            "name": {
              "type": "nested",
              "include_in_parent": true,
              "properties": {
                "family": {
                  "type": "string",
                  "index": "not_analyzed"
                },
                "given": {
                  "type": "string",
                  "index": "not_analyzed"
                },
                "middle": {
                  "type": "string",
                  "index": "not_analyzed"
                }
              }
            }
          }
        },
        "processorId": {
          "type": "string",
          "index": "not_analyzed"
        },
        "revisions": {
          "properties": {
            "location": {
              "type": "string"
            },
            "signature": {
              "properties": {
                "createdBy": {
                  "type": "string",
                  "index": "not_analyzed"
                },
                "createdWhen": {
                  "type": "date",
                  "format": "strict_date_optional_time||epoch_millis"
                },
                "createdWhere": {
                  "type": "string",
                  "index": "not_analyzed"
                },
                "createdWhy": {
                  "type": "string",
                  "index": "not_analyzed"
                },
                "version": {
                  "type": "long"
                },
                "ownedBy": {
                  "type": "string",
                  "index": "not_analyzed"
                }
              }
            }
          }
        },
        "signature": {
          "type": "nested",
          "include_in_parent": true,
          "properties": {
            "createdBy": {
              "type": "string"
            },
            "createdWhen": {
              "type": "date",
              "format": "strict_date_optional_time||epoch_millis"
            },
            "createdWhere": {
              "type": "string"
            },
            "createdWhy": {
              "type": "string"
            },
            "version": {
              "type": "long"
            },
            "ownedBy": {
                "type": "string",
                "index": "not_analyzed"
            }
          }
        },
        "status": {
          "type": "string",
          "index": "not_analyzed"
        },
        "study": {
          "type": "nested",
          "include_in_parent": true,
          "properties": {
            "accessionNumber": {
              "type": "nested",
              "include_in_parent": true,
              "properties": {
                "id": {
                  "type": "string",
                  "index": "not_analyzed"
                },
                "issuerNamespace": {
                  "type": "string",
                  "index": "not_analyzed"
                },
                "issuerUniversalId": {
                  "type": "string",
                  "index": "not_analyzed"
                },
                "issuerUniversalIdType": {
                  "type": "string",
                  "index": "not_analyzed"
                }
              }
            },
            "bodypart": {
              "type": "string",
              "index": "not_analyzed"
            },
            "datetime": {
              "type": "date",
              "format": "strict_date_optional_time||epoch_millis"
            },
            "instanceUid": {
              "type": "string",
              "index": "not_analyzed"
            },
            "modality": {
              "type": "string",
              "index": "not_analyzed"
            }
          }
        },
        "type": {
          "type": "string",
          "index": "not_analyzed"
        },
        "workflowId": {
          "type": "string",
          "index": "not_analyzed"
        }
      }
    }
  }
}
