MSH|^~\&|RISAPP|646|||20141002085802||ORM^O01|633596|P|2.3
PID|1|TEST55552999^^^RAMQ|17999||SIMPSON^BART|BAN KAT E|19550531|F|||405 OGILVY^^Montreal^QC^H8V 2T8^CANADA||(514)597-2058|(514)597-2058CRTF||1|||||""||||||||""|N
PV1|1|I|""^^""^^^^""||||""^""|1785781^Bloom,David M.|||||||||""^""|||01||||||||||||||||||||||||""
ORC|NW|""^""|RA2014000459||IP||^^^201410020857^^R||20141002085758|SZYBAR^SZYMCZAK,BARBARA||1785781^Bloom,David M.|TPSY|||EATTEN|||""^""
OBR|1|""^""|RA2014000459|8100^POUMONS (2 INCIDENCES OU MOINS)^^8100^POUMONS (2 INCIDENCES OU MOINS)|R|201410020857|""|""|||||""|||1785781^Bloom,David M.||RA2014000459|RA201400045901|RA201400045901|IMAGES^|20141002085758||CR|""||^^^201410020857^^R||||""|""^""||"",""~""|""|201410020857
ZDS|2.16.124.113611.1.171.1.1.180386^RadImage^Application^DICOM
