{
  "template": "default-script*",
  "aliases": {
    "default-script-read": {}
  },
  "mappings": {
    "com.karos.rialto.scriptmanager.model.Script": {
    "properties": {
      "contents": {
        "type": "string",
        "index": "no",
        "ignore_above": 256
      },
      "deleted": {
        "type": "boolean",
        "index": "not_analyzed"
      },
      "description": {
        "type": "string",
        "index": "not_analyzed"
      },
      "id": {
        "type": "string",
        "index": "not_analyzed"
      },
      "name": {
        "type": "string"
      },
      "revisions": {
        "properties": {
          "location": {
            "type": "string",
            "index": "not_analyzed"
          },
          "signature": {
            "properties": {
              "createdBy": {
                "type": "string",
                "index": "not_analyzed"
              },
              "createdWhen": {
                "type": "date",
                "format": "strict_date_optional_time||epoch_millis"
              },
              "createdWhere": {
                "type": "string",
                "index": "not_analyzed"
              },
              "createdWhy": {
                "type": "string",
                "index": "not_analyzed"
              },
              "version": {
                "type": "long",
                "index": "not_analyzed"
              },
              "ownedBy": {
                "type": "string",
                "index": "not_analyzed"
              }
            }
          }
        }
      },
      "scriptType": {
        "type": "string",
        "index": "not_analyzed"
      },
      "signature": {
        "properties": {
          "createdBy": {
            "type": "string",
            "index": "not_analyzed"
          },
          "createdWhen": {
            "type": "date",
            "format": "strict_date_optional_time||epoch_millis",
            "index": "not_analyzed"
          },
          "createdWhere": {
            "type": "string",
            "index": "not_analyzed"
          },
          "createdWhy": {
            "type": "string",
            "index": "not_analyzed"
          },
          "version": {
            "type": "long",
            "index": "not_analyzed"
          },
          "ownedBy": {
            "type": "string",
            "index": "not_analyzed"
          }
        }
      },
      "type": {
        "type": "string"
      }
    }
  }
}
}