{
  "template": "vc-es-prod-pr-audits*",
  "aliases": {
    "vc-es-prod-pr-audits-read": {}
  },
  "mappings": {
    "_default_": {
      "dynamic_templates": [
        {
          "strings_as_keyword": {
            "mapping": {
              "ignore_above": 1024,
              "type": "keyword"
            },
            "match_mapping_type": "string"
          }
        }
      ],
      "properties": {
        "Content": {
          "properties": {
            "ActiveParticipant": {
              "type": "nested",
              "properties": {
                "AlternativeUserID": {
                  "type": "keyword"
                },
                "NetworkAccessPointID": {
                  "type": "keyword"
                },
                "NetworkAccessPointTypeCode": {
                  "type": "keyword"
                },
                "RoleIDCode": {
                  "properties": {
                    "code": {
                      "type": "keyword"
                    },
                    "codeSystemName": {
                      "type": "keyword"
                    },
                    "displayName": {
                      "type": "text"
                    }
                  }
                },
                "UserID": {
                  "type": "keyword"
                },
                "UserIsRequestor": {
                  "type": "boolean"
                }
              }
            },
            "AuditSourceIdentification": {
              "properties": {
                "AuditSourceID": {
                  "type": "keyword"
                }
              }
            },
            "EventIdentification": {
              "properties": {
                "EventActionCode": {
                  "type": "keyword"
                },
                "EventDateTime": {
                  "type": "date"
                },
                "EventID": {
                  "properties": {
                    "code": {
                      "type": "keyword"
                    },
                    "codeSystemName": {
                      "type": "text"
                    },
                    "displayName": {
                      "type": "text"
                    }
                  }
                },
                "EventOutcomeIndicator": {
                  "type": "keyword"
                },
                "EventTypeCode": {
                  "type": "nested",
                  "properties": {
                    "code": {
                      "type": "keyword"
                    },
                    "codeSystemName": {
                      "type": "text"
                    },
                    "displayName": {
                      "type": "text"
                    }
                  }
                }
              }
            },
            "ParticipantObjectIdentification": {
              "type": "nested",
              "properties": {
                "ParticipantObjectID": {
                  "type": "keyword"
                },
                "ParticipantObjectIDTypeCode": {
                  "properties": {
                    "code": {
                      "type": "keyword"
                    },
                    "codeSystemName": {
                      "type": "text"
                    },
                    "displayName": {
                      "type": "text"
                    }
                  }
                },
                "ParticipantObjectName": {
                  "type": "text"
                },
                "ParticipantObjectQuery": {
                  "type": "text"
                },
                "ParticipantObjectTypeCode": {
                  "type": "keyword"
                },
                "ParticipantObjectTypeCodeRole": {
                  "type": "keyword"
                }
              }
            }
          }
        },
        "deleted": {
          "type": "boolean"
        },
        "id": {
          "type": "keyword"
        },
        "revisions": {
          "properties": {
            "location": {
              "type": "keyword"
            },
            "signature": {
              "properties": {
                "createdBy": {
                  "type": "keyword"
                },
                "createdWhen": {
                  "type": "date"
                },
                "createdWhere": {
                  "type": "keyword"
                },
                "createdWhy": {
                  "type": "keyword"
                },
                "ownedBy": {
                  "type": "keyword"
                },
                "version": {
                  "type": "long"
                }
              }
            }
          }
        },
        "signature": {
          "properties": {
            "createdBy": {
              "type": "keyword"
            },
            "createdWhen": {
              "type": "date"
            },
            "createdWhere": {
              "type": "keyword"
            },
            "createdWhy": {
              "type": "keyword"
            },
            "ownedBy": {
              "type": "keyword"
            },
            "version": {
              "type": "long"
            }
          }
        },
        "type": {
          "type": "keyword"
        }
      }
    }
  }
}