66173
57444586
212241RAD1
300-MG1
516385brivo
718267DP3
718267DP4
718267DP7
718267ER1
718267P500
718MTSDEF5000
722028-339
722028-339 INTERV
ACUSON_US2
ANN70RCA
ARCADIDSOR
ARCADIS
ARCADISOR20104
ARTIS121301
AWP41534
AWP42361
AWP74047
BV SYSTEM
BVNM1
CAMORTHO1
CAMUS1
CAMUS2
CAMUS3
CHESTROOM
CR850
CS-7
CS-7 Portable 01
CT01
CT1
CT54289
CTAWP64263
CTAWP66173
ctawp71342
CTAWP73667
CTAWP75481
CTAWP75481-TMII
CTAWP95285
Discovery NM 630
DS
DS N,SHORE
dsm545
DU ROOM2
DUBIN 
DUUS3
ECAM
ECAM1
GEMSGEMS
GEMSGEMS north shore
gevct
GEVCT2
GP1CENTERCT01
HDI5000 QN
IIPER2
ImagePilot
INFINIA3
INFME7
mamoes2
mamoes3
MEDPC
MR01
MR02MR02
MR04MR04
MR08
MR08MR08
MR09
MR09MR09
MRC25727
MRC51030  
MSDSM01
MSW_ORT_CR
NUC MED GAMMA/CT
NUC. MED
ORTHO-01
ORTHO-02
ORTHO7
P0000
PHMR01
QEDCT1
QNBONE1
QNOPCT1
QNOPMGES1
QNOPMGES2
QNOPMR1
QNOPUS2
Radiology Assoc
RADWORKS1
RASSUS5
REGIUS Unitea
REVCT
RF_System
Room 1
ROOM 2
ROOM 3
ROOM1 DU
SI MAIN
SMARTCAM
SMARTER
SMARTOR
Specimen Xray
SPINE1
SPINE2
xeleris6
ZONARE interventional
