{
  "template": "vc-es-prod-dr-cfind-info*",
  "aliases": {
    "vc-es-prod-dr-cfind-info-read": {}
  },
  "mappings": {
    "com.karos.nifi.CFindInformation": {
      "properties": {
        "aeTitle": {
          "type": "text"
        },
        "contextId": {
          "type": "keyword"
        },
        "deleted": {
          "type": "boolean"
        },
        "id": {
          "type": "keyword"
        },
        "patientBirthdate": {
          "type": "text"
        },
        "patientName": {
          "type": "text"
        },
        "patientSex": {
          "type": "text"
        },
        "revisions": {
          "properties": {
            "location": {
              "type": "text"
            },
            "signature": {
              "properties": {
                "createdBy": {
                  "type": "text"
                },
                "createdWhen": {
                  "type": "date"
                },
                "createdWhere": {
                  "type": "text"
                },
                "createdWhy": {
                  "type": "text"
                },
                "ownedBy": {
                  "type": "keyword"
                },
                "version": {
                  "type": "long"
                }
              }
            }
          }
        },
        "signature": {
          "properties": {
            "createdBy": {
              "type": "text"
            },
            "createdWhen": {
              "type": "date"
            },
            "createdWhere": {
              "type": "text"
            },
            "createdWhy": {
              "type": "text"
            },
            "ownedBy": {
              "type": "keyword"
            },
            "version": {
              "type": "long"
            }
          }
        },
        "studyIuid": {
          "type": "keyword"
        },
        "type": {
          "type": "text"
        }
      }
    }
  }
}