build.time = Wed Oct 30 17:10:04 EDT 2019
rialto.version = 7.5.1.1b2060
rialto.product = all
src.branch = HEAD
src.revision = 9ef12e5bd4d63829cc440b54bf4a73c4c7c93ae1
build.groovy.version = 2.4.12
build.os.version = Linux 2.6.32-696.30.1.el6.x86_64
