build.time = Wed Jul 24 16:48:30 EDT 2019
rialto.version = 7.5.1b2033
rialto.product = all
src.branch = HEAD
src.revision = 8ac7c9bdea01427190b262756162bc30e0318b8c
build.groovy.version = 2.4.12
build.os.version = Linux 2.6.32-696.30.1.el6.x86_64
