#11 * * * * find /data/rialto/logbackup/ -maxdepth 1 -mmin +10 -type f -name "rialto_$(hostname -s)_*.log" -exec gzip {} \;
#5 */3 * * * rsync -avzhe ssh --progress /data/nifi/logbackup/*.zip 10.241.63.233:/backups/logs/tcrsvr2308/nifi/
#5 */3 * * * rsync -avzhe ssh --progress /data/rialto/logbackup/*.gz 10.241.63.233:/backups/logs/tcrsvr2308/rialto/
#*/10 * * * * /root/backup_rialto_entities.sh
