{
  "template": "default-space*",
  "aliases": {
    "default-space-read": {}
  },
  "mappings": {
    "com.karos.rialto.space.model.Space": {
      "properties": {
        "defaultSpace": {
          "type": "boolean"
        },
        "deleted": {
          "type": "boolean"
        },
        "id": {
          "type": "keyword"
        },
        "isReadOnly": {
          "type": "boolean"
        },
        "revisions": {
          "properties": {
            "location": {
              "type": "keyword"
            },
            "signature": {
              "properties": {
                "createdBy": {
                  "type": "keyword"
                },
                "createdWhen": {
                  "type": "date"
                },
                "createdWhere": {
                  "type": "keyword"
                },
                "createdWhy": {
                  "type": "keyword"
                },
                "ownedBy": {
                  "type": "keyword"
                },
                "version": {
                  "type": "long"
                }
              }
            }
          }
        },
        "signature": {
          "properties": {
            "createdBy": {
              "type": "keyword"
            },
            "createdWhen": {
              "type": "date"
            },
            "createdWhere": {
              "type": "keyword"
            },
            "createdWhy": {
              "type": "keyword"
            },
            "ownedBy": {
              "type": "keyword"
            },
            "version": {
              "type": "long"
            }
          }
        },
        "spaceLabel": {
          "type": "text"
        },
        "spaceType": {
          "type": "text"
        },
        "type": {
          "type": "keyword"
        },
        "volumes": {
          "properties": {
            "dataCenter": {
              "type": "text"
            },
            "description": {
              "type": "text"
            },
            "id": {
              "type": "text"
            },
            "isReadOnly": {
              "type": "boolean"
            },
            "path": {
              "type": "text"
            },
            "type": {
              "type": "text"
            },
            "volumeLabel": {
              "type": "text"
            }
          }
        },
        "writeAlgorithm": {
          "type": "text"
        }
      }
    }
  }
}