{
  "template": "default-order-schedule*",
  "aliases": {
    "default-order-schedule-read": {}
  },
  "mappings": {
    "com.karos.rialto.mwl.model.OrderScheduleRecord": {
      "properties": {
        "deleted": {
          "type": "boolean"
        },
        "id": {
          "type": "keyword"
        },
        "orderMessage": {
          "type": "keyword",
          "index": false
        },
        "revisions": {
          "properties": {
            "location": {
              "type": "keyword"
            },
            "signature": {
              "properties": {
                "createdBy": {
                  "type": "keyword"
                },
                "createdWhen": {
                  "type": "date"
                },
                "createdWhere": {
                  "type": "keyword"
                },
                "createdWhy": {
                  "type": "keyword"
                },
                "ownedBy": {
                  "type": "keyword"
                },
                "version": {
                  "type": "long"
                }
              }
            }
          }
        },
        "signature": {
          "properties": {
            "createdBy": {
              "type": "keyword"
            },
            "createdWhen": {
              "type": "date"
            },
            "createdWhere": {
              "type": "keyword"
            },
            "createdWhy": {
              "type": "keyword"
            },
            "ownedBy": {
              "type": "keyword"
            },
            "version": {
              "type": "long"
            }
          }
        },
        "siteOid": {
          "type": "keyword"
        },
        "type": {
          "type": "keyword"
        }
      }
    }
  }
}
