{
  "template": "default-prior-rules*",
  "aliases": {
    "default-prior-rules-read": {}
  },
  "mappings": {
    "com.karos.rialto.priorrulemanager.model.RuleSet": {
      "properties": {
        "defaultRuleSet": {
          "type": "boolean"
        },
        "deleted": {
          "type": "boolean"
        },
        "id": {
          "type": "keyword"
        },
        "name": {
          "type": "text"
        },
        "revisions": {
          "properties": {
            "location": {
              "type": "keyword"
            },
            "signature": {
              "properties": {
                "createdBy": {
                  "type": "keyword"
                },
                "createdWhen": {
                  "type": "date"
                },
                "createdWhere": {
                  "type": "keyword"
                },
                "createdWhy": {
                  "type": "keyword"
                },
                "ownedBy": {
                  "type": "keyword"
                },
                "version": {
                  "type": "long"
                }
              }
            }
          }
        },
        "ruleGroups": {
          "properties": {
            "maxPriors": {
              "type": "long"
            },
            "name": {
              "type": "text"
            },
            "orderAnatomicRegion": {
              "type": "text"
            },
            "orderModality": {
              "type": "text"
            },
            "rules": {
              "properties": {
                "maxAge": {
                  "type": "keyword"
                },
                "maxOldest": {
                  "type": "long"
                },
                "maxPriors": {
                  "type": "long"
                },
                "priorAnatomicRegion": {
                  "type": "text"
                },
                "priorModality": {
                  "type": "text"
                },
                "ruleNumber": {
                  "type": "long"
                }
              }
            }
          }
        },
        "signature": {
          "properties": {
            "createdBy": {
              "type": "keyword"
            },
            "createdWhen": {
              "type": "date"
            },
            "createdWhere": {
              "type": "keyword"
            },
            "createdWhy": {
              "type": "keyword"
            },
            "ownedBy": {
              "type": "keyword"
            },
            "version": {
              "type": "long"
            }
          }
        },
        "type": {
          "type": "keyword"
        }
      }
    }
  }
}