{
  "template": "default-routing-rules*",
  "aliases": {
    "default-routing-rules-read": {}
  },
  "mappings": {
    "com.karos.rialto.routingrules.model.RoutingRuleSet": {
      "properties": {
        "actions": {
          "properties": {
            "actionType": {
              "type": "text"
            },
            "spaceId": {
              "type": "text"
            }
          }
        },
        "defaultRuleSet": {
          "type": "boolean"
        },
        "deleted": {
          "type": "boolean"
        },
        "description": {
          "type": "text"
        },
        "id": {
          "type": "text"
        },
        "inputType": {
          "type": "keyword"
        },
        "matchingCriteria": {
          "properties": {
            "conditions": {
              "properties": {
                "conditionDetails": {
                  "properties": {
                    "matchType": {
                      "type": "text"
                    },
                    "matchValues": {
                      "type": "text"
                    },
                    "matchVariable": {
                      "type": "text"
                    }
                  }
                },
                "conditionType": {
                  "type": "text"
                }
              }
            }
          }
        },
        "name": {
          "type": "text"
        },
        "revisions": {
          "properties": {
            "location": {
              "type": "keyword"
            },
            "signature": {
              "properties": {
                "createdBy": {
                  "type": "keyword"
                },
                "createdWhen": {
                  "type": "date"
                },
                "createdWhere": {
                  "type": "keyword"
                },
                "createdWhy": {
                  "type": "keyword"
                },
                "ownedBy": {
                  "type": "keyword"
                },
                "version": {
                  "type": "long"
                }
              }
            }
          }
        },
        "signature": {
          "properties": {
            "createdBy": {
              "type": "keyword"
            },
            "createdWhen": {
              "type": "date"
            },
            "createdWhere": {
              "type": "keyword"
            },
            "createdWhy": {
              "type": "keyword"
            },
            "ownedBy": {
              "type": "keyword"
            },
            "version": {
              "type": "long"
            }
          }
        },
        "type": {
          "type": "keyword"
        }
      }
    }
  }
}