{
  "template": "default-context*",
  "aliases": {
    "default-context-read": {}
  },
  "mappings": {
    "com.karos.rialto.contextmanager.model.Context": {
      "properties": {
        "aeTitle": {
          "type": "text"
        },
        "affinityDomain": {
          "properties": {
            "domainUUID": {
              "type": "keyword"
            },
            "domainUUIDtype": {
              "type": "keyword"
            },
            "namespaceID": {
              "type": "keyword"
            }
          }
        },
        "behaviour": {
          "properties": {
            "batchedPrefetchEnabled": {
              "type": "boolean"
            },
            "batchedPrefetchStartTime": {
              "type": "keyword"
            },
            "batchedPrefetchWindow": {
              "type": "keyword"
            },
            "filterDuplicateAccessionNumbers": {
              "type": "boolean"
            },
            "forwardKeyObjects": {
              "type": "boolean"
            },
            "initialRetryDelay": {
              "type": "keyword"
            },
            "localizationScript": {
              "type": "keyword"
            },
            "mapNewUids": {
              "type": "boolean"
            },
            "maximumRetryDelay": {
              "type": "keyword"
            },
            "orderCreationScript": {
              "type": "keyword"
            },
            "reportCreationScript": {
              "type": "keyword"
            },
            "retryDelayMultiplier": {
              "type": "long"
            },
            "retryLimit": {
              "type": "long"
            },
            "ruleset": {
              "properties": {
                "id": {
                  "type": "keyword"
                }
              }
            },
            "sendStorageCommitmentRequest": {
              "type": "boolean"
            },
            "slidingPrefetchWindow": {
              "type": "keyword"
            }
          }
        },
        "comments": {
          "type": "text"
        },
        "deleted": {
          "type": "boolean"
        },
        "destinationDevices": {
          "properties": {
            "id": {
              "type": "keyword"
            }
          }
        },
        "facility": {
          "type": "text"
        },
        "group": {
          "type": "text"
        },
        "id": {
          "type": "keyword"
        },
        "partners": {
          "properties": {
            "id": {
              "type": "keyword"
            }
          }
        },
        "revisions": {
          "properties": {
            "location": {
              "type": "keyword"
            },
            "signature": {
              "properties": {
                "createdBy": {
                  "type": "keyword"
                },
                "createdWhen": {
                  "type": "date"
                },
                "createdWhere": {
                  "type": "keyword"
                },
                "createdWhy": {
                  "type": "keyword"
                },
                "ownedBy": {
                  "type": "keyword"
                },
                "version": {
                  "type": "long"
                }
              }
            }
          }
        },
        "signature": {
          "properties": {
            "createdBy": {
              "type": "keyword"
            },
            "createdWhen": {
              "type": "date"
            },
            "createdWhere": {
              "type": "keyword"
            },
            "createdWhy": {
              "type": "keyword"
            },
            "ownedBy": {
              "type": "keyword"
            },
            "version": {
              "type": "long"
            }
          }
        },
        "siteCode": {
          "type": "keyword"
        },
        "siteId": {
          "type": "keyword"
        },
        "siteName": {
          "type": "text"
        },
        "siteOid": {
          "type": "keyword"
        },
        "siteUidPrefix": {
          "type": "keyword"
        },
        "sourceDevices": {
          "properties": {
            "id": {
              "type": "keyword"
            }
          }
        },
        "status": {
          "type": "keyword"
        },
        "type": {
          "type": "keyword"
        }
      }
    }
  }
}