{
  "template": "default-event*",
  "aliases": {
    "default-event-read": {}
  },
  "mappings": {
    "_default_": {
      "dynamic": "false",
      "_all": {
        "enabled": false
      },
      "properties": {
        "attemptNumber": {
          "type": "long"
        },
        "contextId": {
          "type": "keyword"
        },
        "deleted": {
          "type": "boolean"
        },
        "durationMillis": {
          "type": "long"
        },
        "flowfileId": {
          "type": "keyword"
        },
        "id": {
          "type": "keyword"
        },
        "lockfileId": {
          "type": "keyword"
        },
        "order": {
          "type": "nested",
          "include_in_parent": true,
          "properties": {
            "accessionNumber": {
              "type": "nested",
              "include_in_parent": true,
              "properties": {
                "id": {
                  "type": "keyword"
                },
                "issuerNamespace": {
                  "type": "keyword"
                },
                "issuerUniversalId": {
                  "type": "keyword"
                },
                "issuerUniversalIdType": {
                  "type": "keyword"
                }
              }
            },
            "bodypart": {
              "type": "keyword"
            },
            "datetime": {
              "type": "date"
            },
            "modality": {
              "type": "keyword"
            },
            "procedureCode": {
              "type": "keyword"
            }
          }
        },
        "patient": {
          "type": "nested",
          "include_in_parent": true,
          "properties": {
            "accountNumber": {
              "type": "keyword"
            },
            "address": {
              "type": "nested",
              "include_in_parent": true,
              "properties": {
                "city": {
                  "type": "keyword"
                },
                "country": {
                  "type": "keyword"
                },
                "phoneNumber": {
                  "type": "text"
                },
                "stateOrProvince": {
                  "type": "keyword"
                },
                "street": {
                  "type": "keyword"
                },
                "zipOrPostalCode": {
                  "type": "text"
                }
              }
            },
            "birthdate": {
              "type": "nested",
              "include_in_parent": true,
              "properties": {
                "day": {
                  "type": "keyword"
                },
                "month": {
                  "type": "keyword"
                },
                "year": {
                  "type": "keyword"
                }
              }
            },
            "gender": {
              "type": "keyword"
            },
            "identifiers": {
              "type": "nested",
              "include_in_parent": true,
              "properties": {
                "id": {
                  "type": "keyword"
                },
                "issuerNamespace": {
                  "type": "keyword"
                },
                "issuerUniversalId": {
                  "type": "keyword"
                },
                "issuerUniversalIdType": {
                  "type": "keyword"
                }
              }
            },
            "name": {
              "type": "nested",
              "include_in_parent": true,
              "properties": {
                "family": {
                  "type": "keyword"
                },
                "given": {
                  "type": "keyword"
                },
                "middle": {
                  "type": "keyword"
                }
              }
            }
          }
        },
        "processorId": {
          "type": "keyword"
        },
        "retriesPending": {
          "type": "boolean"
        },
        "revisions": {
          "properties": {
            "location": {
              "type": "text"
            },
            "signature": {
              "properties": {
                "createdBy": {
                  "type": "keyword"
                },
                "createdWhen": {
                  "type": "date"
                },
                "createdWhere": {
                  "type": "keyword"
                },
                "createdWhy": {
                  "type": "keyword"
                },
                "ownedBy": {
                  "type": "keyword"
                },
                "version": {
                  "type": "long"
                }
              }
            }
          }
        },
        "signature": {
          "type": "nested",
          "include_in_parent": true,
          "properties": {
            "createdBy": {
              "type": "text"
            },
            "createdWhen": {
              "type": "date"
            },
            "createdWhere": {
              "type": "text"
            },
            "createdWhy": {
              "type": "text"
            },
            "ownedBy": {
              "type": "keyword"
            },
            "version": {
              "type": "long"
            }
          }
        },
        "status": {
          "type": "keyword"
        },
        "study": {
          "type": "nested",
          "include_in_parent": true,
          "properties": {
            "accessionNumber": {
              "type": "nested",
              "include_in_parent": true,
              "properties": {
                "id": {
                  "type": "keyword"
                },
                "issuerNamespace": {
                  "type": "keyword"
                },
                "issuerUniversalId": {
                  "type": "keyword"
                },
                "issuerUniversalIdType": {
                  "type": "keyword"
                }
              }
            },
            "bodypart": {
              "type": "keyword"
            },
            "datetime": {
              "type": "date"
            },
            "instanceUid": {
              "type": "keyword"
            },
            "modality": {
              "type": "keyword"
            }
          }
        },
        "type": {
          "type": "keyword"
        },
        "workflowId": {
          "type": "keyword"
        }
      }
    }
  }
}

