{
  "template": "vc-es-prod-dr-device*",
  "aliases": {
    "vc-es-prod-dr-device-read": {}
  },
  "mappings": {
    "com.karos.rialto.devices.Device": {
      "properties": {
        "deleted": {
          "type": "boolean"
        },
        "description": {
          "type": "text"
        },
        "deviceType": {
          "type": "text"
        },
        "endpoints": {
          "properties": {
            "id": {
              "type": "keyword"
            },
            "tls": {
              "properties": {
                "clientAuthenticationEnabled": {
                  "type": "boolean"
                },
                "keyStore": {
                  "type": "keyword"
                },
                "keyStorePassword": {
                  "type": "keyword"
                },
                "tlsRoot": {
                  "type": "keyword"
                },
                "trustStore": {
                  "type": "keyword"
                },
                "trustStorePassword": {
                  "type": "keyword"
                }
              }
            },
            "uri": {
              "type": "keyword"
            }
          }
        },
        "entities": {
          "properties": {
            "aeTitle": {
              "type": "text"
            },
            "application": {
              "type": "text"
            },
            "charset": {
              "type": "text"
            },
            "facility": {
              "type": "text"
            },
            "id": {
              "type": "text"
            },
            "repositoryUID": {
              "type": "text"
            },
            "services": {
              "properties": {
                "acceptableMessageTypes": {
                  "type": "text"
                },
                "deviceEndpoints": {
                  "type": "text"
                },
                "id": {
                  "type": "text"
                },
                "persistentConnection": {
                  "type": "boolean"
                },
                "presentationContextSet": {
                  "properties": {
                    "sopClassUid": {
                      "type": "text"
                    },
                    "transferSyntaxSet": {
                      "type": "text"
                    }
                  }
                },
                "protocol": {
                  "type": "text"
                },
                "relativeUrl": {
                  "type": "keyword"
                },
                "requestMorpher": {
                  "type": "keyword"
                },
                "responseMorpher": {
                  "type": "keyword"
                },
                "tcpKeepAlive": {
                  "type": "boolean"
                },
                "type": {
                  "type": "text"
                }
              }
            },
            "storageCommitEnabled": {
              "type": "boolean"
            },
            "type": {
              "type": "text"
            }
          }
        },
        "id": {
          "type": "text"
        },
        "location": {
          "type": "keyword"
        },
        "model": {
          "type": "keyword"
        },
        "name": {
          "type": "text"
        },
        "revisions": {
          "properties": {
            "location": {
              "type": "keyword"
            },
            "signature": {
              "properties": {
                "createdBy": {
                  "type": "keyword"
                },
                "createdWhen": {
                  "type": "date"
                },
                "createdWhere": {
                  "type": "keyword"
                },
                "createdWhy": {
                  "type": "keyword"
                },
                "ownedBy": {
                  "type": "keyword"
                },
                "version": {
                  "type": "long"
                }
              }
            }
          }
        },
        "signature": {
          "properties": {
            "createdBy": {
              "type": "keyword"
            },
            "createdWhen": {
              "type": "date"
            },
            "createdWhere": {
              "type": "keyword"
            },
            "createdWhy": {
              "type": "keyword"
            },
            "ownedBy": {
              "type": "keyword"
            },
            "version": {
              "type": "long"
            }
          }
        },
        "type": {
          "type": "keyword"
        },
        "vendor": {
          "type": "text"
        }
      }
    }
  }
}