{
  "template": "default-script*",
  "aliases": {
    "default-script-read": {}
  },
  "mappings": {
    "com.karos.rialto.scriptmanager.model.Script": {
      "properties": {
        "contents": {
          "type": "keyword",
          "index": false,
          "ignore_above": 256
        },
        "deleted": {
          "type": "boolean"
        },
        "description": {
          "type": "keyword"
        },
        "id": {
          "type": "keyword"
        },
        "name": {
          "type": "text"
        },
        "revisions": {
          "properties": {
            "location": {
              "type": "keyword"
            },
            "signature": {
              "properties": {
                "createdBy": {
                  "type": "keyword"
                },
                "createdWhen": {
                  "type": "date"
                },
                "createdWhere": {
                  "type": "keyword"
                },
                "createdWhy": {
                  "type": "keyword"
                },
                "ownedBy": {
                  "type": "keyword"
                },
                "version": {
                  "type": "long"
                }
              }
            }
          }
        },
        "scriptType": {
          "type": "keyword"
        },
        "signature": {
          "properties": {
            "createdBy": {
              "type": "keyword"
            },
            "createdWhen": {
              "type": "date"
            },
            "createdWhere": {
              "type": "keyword"
            },
            "createdWhy": {
              "type": "keyword"
            },
            "ownedBy": {
              "type": "keyword"
            },
            "version": {
              "type": "long"
            }
          }
        },
        "type": {
          "type": "text"
        }
      }
    }
  }
}